{
  "project_info": {
    "project_number": "565975130745",
    "project_id": "my-awesome-motya-project",
    "storage_bucket": "my-awesome-motya-project.appspot.com"
  },
  "client": [
    {
      "client_info": {
        "mobilesdk_app_id": "1:565975130745:android:b8870ed8e958747944eaa8",
        "android_client_info": {
          "package_name": "com.kiwikk.myawesomeproject"
        }
      },
      "oauth_client": [
        {
          "client_id": "565975130745-oavahnp1q6n023jlchtgpnqtnp9unjjn.apps.googleusercontent.com",
          "client_type": 1,
          "android_info": {
            "package_name": "com.kiwikk.myawesomeproject",
            "certificate_hash": "b0bd0cfe6d39e8e3bfc7a6aa0a7bfb4cd9d2a057"
          }
        },
        {
          "client_id": "565975130745-0gmqogmias3ql25s0gaonf6qh0jc2km6.apps.googleusercontent.com",
          "client_type": 3
        }
      ],
      "api_key": [
        {
          "current_key": "AIzaSyDiPbB22HRux8Xu7ymmRhel8JfEW7KiAaE"
        }
      ],
      "services": {
        "appinvite_service": {
          "other_platform_oauth_client": [
            {
              "client_id": "565975130745-0gmqogmias3ql25s0gaonf6qh0jc2km6.apps.googleusercontent.com",
              "client_type": 3
            }
          ]
        }
      }
    }
  ],
  "configuration_version": "1"
}